<?xml version="1.0" standalone="no"?>
<!DOCTYPE svg PUBLIC "-//W3C//DTD SVG 20010904//EN"
 "http://www.w3.org/TR/2001/REC-SVG-20010904/DTD/svg10.dtd">
<svg version="1.0" xmlns="http://www.w3.org/2000/svg"
 width="256.000000pt" height="256.000000pt" viewBox="0 0 256.000000 256.000000"
 preserveAspectRatio="xMidYMid meet">
<metadata>
Created by potrace 1.15, written by Peter Selinger 2001-2017
</metadata>
<g transform="translate(0.000000,256.000000) scale(0.100000,-0.100000)"
fill="#000000" stroke="none">
<path d="M513 2386 c-101 -33 -190 -113 -241 -216 -25 -50 -27 -65 -27 -170 0
-107 2 -119 29 -175 60 -122 186 -212 309 -222 l64 -5 17 68 c41 162 164 325
304 404 34 19 62 39 62 43 0 5 -12 34 -27 65 -34 73 -112 150 -188 187 -52 26
-72 30 -160 32 -64 2 -115 -2 -142 -11z"/>
<path d="M1793 2386 c-60 -19 -137 -71 -179 -119 -31 -37 -84 -134 -84 -154 0
-4 28 -24 62 -43 140 -79 263 -242 304 -404 l17 -68 64 5 c123 10 249 100 309
222 27 56 29 68 29 175 0 107 -2 119 -29 175 -38 77 -115 153 -191 190 -52 25
-74 29 -160 32 -65 2 -115 -2 -142 -11z"/>
<path d="M1128 1981 c-145 -47 -269 -174 -312 -320 -21 -71 -21 -211 0 -282
43 -148 168 -274 315 -320 82 -26 216 -26 298 0 147 46 272 172 315 320 21 71
21 211 0 282 -43 148 -168 274 -315 320 -81 25 -222 25 -301 0z"/>
<path d="M325 1466 c-122 -39 -224 -130 -283 -253 l-37 -78 -3 -267 -3 -268
199 0 199 0 41 83 c72 143 173 245 313 316 42 21 82 40 90 43 9 3 -2 23 -38
63 -79 88 -153 257 -153 349 l0 26 -142 -1 c-86 0 -159 -5 -183 -13z"/>
<path d="M1910 1455 c0 -93 -74 -262 -153 -350 -36 -40 -47 -60 -38 -63 8 -3
48 -22 90 -43 140 -71 241 -173 313 -316 l41 -83 199 0 199 0 -3 268 -3 267
-37 78 c-49 101 -131 185 -225 230 -66 31 -72 32 -225 35 l-158 4 0 -27z"/>
<path d="M890 897 c-176 -60 -303 -191 -354 -366 -12 -41 -16 -99 -16 -233 l0
-178 760 0 760 0 0 178 c0 134 -4 192 -16 233 -53 179 -194 320 -373 373 -45
13 -111 16 -375 16 -305 -1 -324 -2 -386 -23z"/>
</g>
</svg>
